﻿ja,zh,en,ko
一井 透,一井 透,Ichii Tooru,이치이 토오루
百木 るん,百木 伦,Momoki Run,모모키 룬
西 由宇子,西 由宇子,Nishi Yuuko,니시 유우코
天王寺 渚,天王寺 渚,Tennouji Nagisa,텐노지 나기사
野山 美歩,野山 美步,Noyama Miho,노야마 미호
今井 豊,今井 丰,Imai Yutaka,이마이 유타카
保登 心愛,保登 心爱,Hoto Cocoa,호토 코코아
香風 智乃,香风 智乃,Kafu Chino,카후 치노
クレア,克蕾尔,Clea,클레어
天々座 理世,天天座 理世,Tedeza Rize,테데자 리제
宇治松 千夜,宇治松 千夜,Ujimatsu Chiya,우지마츠 치야
桐間 紗路,桐间 纱路,Kirima Syaro,키리마 샤로
条河 麻耶,条河 麻耶,Jouga Maya,조가 마야
奈津 恵,奈津 惠,Natsu Megumi,나츠 메구미
細野はるみ,细野 晴海,Hosono Harumi,호소노 하루미
細野 はるみ,细野 晴海,Hosono Harumi,호소노 하루미
怖浦 すず,怖浦 铃,Fuura Suzu,후우라 스즈
きらら,琪拉拉,Kirara,키라라
萩生 響,萩生 响,Hagyuu Hibiki,하규 히비키
江古田 蓮,江古田 莲,Ekoda Ren,에코다 렌
京塚 志温,京冢 志温,Kyouzuka Shion,쿄즈카 시온
吉田 良子,吉田 良子,Yoshida Ryouko,요시다 료코
保登 モカ,保登 摩卡,Hoto Mocha,호토 모카
狭山 椿,狭山 椿,Sayama Tsubaki,사야마 츠바키
武田 詠深,武田 咏深,Takeda Yomi,타케다 요미
山崎 珠姫,山崎 珠姫,Yamazaki Tamaki,야마자키 타마키
薗部 篠,薗部 篠,,
